{
  "data" : {
    "cv" : {
      "id" : {
        "nom" : "ANDRE",
        "prenom" : "Julien",
        "age" : 21,
        "tel" : "0604082699",
        "adresse" : {
          "rue" : {
            "num" :585,
            "nom" :"chemin les Perers"
          },
          "code_postal" : 26300,
          "ville" : "Chatuzange-Le-Goubet"
        },
        "permis" : "permis B + voiture",
        "mail" : "julienandre1199@gmail.com",
        "metier" : "Ingénieur en informatique"
      },
      "formations" :[
        {
          "date_deb" : "2012",
          "date_fin" : "2014",
          "intitule" : "DUT d'Informatique",
          "lieu" : {
            "etablissement" : {
              "nom" : "IUT de Valence",
              "site" : "http://www.iut-valence.fr/"
            },
            "num_dep" : 26
          }
        },
        {
          "date_deb" : "2014",
          "date_fin" : "2015",
          "intitule" : "3ième année Informatique, école d'ingénieur",
          "lieu" : {
            "etablissement" : {
              "nom" : "Polytech' Nice Sophia",
              "site" : "http://www.polytechnice.fr/"
            },
            "num_dep" : "06"
          }
        }
      ],
      "langues" : [
        {
          "nom" : "Anglais",
          "niveau" : "Très Bon"
        },
        {
          "nom" : "Espagnol",
          "niveau" : "Bon"
        },
        {
          "nom" : "Allemand",
          "niveau" : "Bon, à réactiver suite à un manque de pratique"
        }
      ],
      "competences" : {
        "os" : [
          "Windows (XP Famillial, 7, 8, 8.1)",
          "Linux (Fedora, Mageia, Ubuntu)"
        ],
        "logiciels" : [
          "suite Office (PowerPoint, Word, Excel, Access) et ses équivalents libres",
          "Eclipse","IntelliJ","SmartGit","Geany",
          "Joomla","Notepad ++","Sony Vegas Pro (9,10)",
          "CodeBlocks","GPS"
        ],
        "langages" : [
          {
            "nom" : "JAVA",
            "librairies" : ["Maven","OSGi"]
          },
          {
            "nom" : "C",
            "librairies" : []
          },
          {
            "nom" : "JavaScript",
            "librairies" : ["AngularJS","JQuery"]
          },
          {
            "nom" : "HTML",
            "librairies" : []
          },
          {
            "nom" : "CSS",
            "librairies" : ["BootStrap"]
          },
          {
            "nom" : "SQL",
            "librairies" : []
          },
          {
            "nom" : "PHP",
            "librairies" : []
          },
          {
            "nom" : "Python",
            "librairies" : []
          },
          {
            "nom" : "Caml",
            "librairies" : []
          },
          {
            "nom" : "VBA",
            "librairies" : []
          },
          {
            "nom" : "Ada",
            "librairies" : []
          },
          {
            "nom" : "Assembleur",
            "librairies" : []
          }
        ],
        "methodes" : ["Merise", "UML"],
        "methodes_agiles" : ["Scrum"]
      },
      "exps_pro" : [
        {
          "date_deb" : "4",
          "date_fin" : "5 Déc. 2014",
          "mission" : {
            "entreprise" :{
              "nom" : "Polytech' Nice Sophia",
              "site" : "http://www.polytechnice.fr/",
              "lieu" : {
                "nom" : "Nice",
                "num_dep" : "06"
              }
            },
            "poste" : "Organisation du concours \"La nuit de l'info\"",
            "conclusion" : {
              "taches_accomplies" : [
                "Recherche de sponsors","Réservation des salles","Communication de l'évènement", "Gestion lors de l'évènement"
              ],
              "comp_acquises" : [
                "Autonomie accrue (recherche de sponsors)",
                "Initiation à la gestion d'un projet de grande ampleur (équipe de 10 personnes pour 250 participants)"
              ]
            }
          }
        },{
          "date_deb" : "Août",
          "date_fin" : "Juil. 2014",
          "mission" : {
            "entreprise" :{
              "nom" : "LCIS",
              "site" : "http://lcis.grenoble-inp.fr/le-laboratoire/",
              "lieu" : {
                "nom" : "Valence",
                "num_dep" : 26
              }
            },
            "poste" : "Mise en œuvre d’une interface d’administration Web (HTML/CSS/JavaScript) et mobile (Androïd) dans le cadre d’un démonstrateur de projet de recherche",
            "conclusion" : {
              "taches_accomplies" : [
                "Réalisation d'une interface Web d'un projet de recherche","Apprentissage de BootStrap et de JQuery","Réalisation d'un rapport de stage"
              ],
              "comp_acquises" : [
                "Travail en équipe amélioré","Maîtrise de JavaScript, JQuery et de BootStrap","Adaptation à un nouvel environnement professionnel"
              ]
            }
          }
        }
      ],
      "cis" : [
        {
          "domaine" : "Musique",
          "descriptif" : "Guitare électrique, 8 ans dont 2 ans au conservatoire (2ième cycle) ; guitariste d'un groupe pendant 4 ans"
        },
        {
          "domaine" : "Lecture",
          "descriptif" : "Romans, romans fantastiques/philosophiques (Bernard WERBER)"
        },
        {
          "domaine" : "Culture",
          "descriptif" : "Passion pour la culture japonaise (animes, mangas)"
        },
        {
          "domaine" : "Jeux de stratégie",
          "descriptif" : "Passion pour les jeux coopératifs en réseau"
        },
        {
          "domaine" : "Secourisme",
          "descriptif" : "AFPS (2010)"
        }
      ]
    }
  }
}
